<svg width="1920" height="735" viewBox="0 0 1920 735" fill="none" xmlns="http://www.w3.org/2000/svg">
<g clip-path="url(#clip0)">
<path d="M0 0H1920V734.025H0V0Z" fill="#F8F8F8"/>
<path fill-rule="evenodd" clip-rule="evenodd" d="M1238.96 733.367C1227.89 667.243 1108.1 615.157 1033.21 615.157C958.33 615.157 896.96 667.243 891.372 733.367H776.744C782.478 610.312 895.109 512.133 1033.21 512.133C1171.32 512.133 1283.95 610.312 1289.68 733.367H1238.96Z" fill="url(#paint0_linear)"/>
<path d="M1380.86 416.432C1438.38 518.008 1481.77 776.18 1212.34 728.567C1109.21 710.343 956.441 612.185 966.207 525.146C975.973 438.107 1085.42 301 1173.64 301C1261.86 301 1323.34 314.856 1380.86 416.432Z" fill="url(#paint1_linear)" fill-opacity="0.36"/>
</g>
<defs>
<linearGradient id="paint0_linear" x1="1033.21" y1="536.133" x2="1033.21" y2="942.855" gradientUnits="userSpaceOnUse">
<stop stop-color="#666A8F" stop-opacity="0.26"/>
<stop offset="1" stop-color="#666A8F" stop-opacity="0"/>
</linearGradient>
<linearGradient id="paint1_linear" x1="1194.88" y1="301" x2="1194.88" y2="734.367" gradientUnits="userSpaceOnUse">
<stop stop-color="#666A8F" stop-opacity="0"/>
<stop offset="1" stop-color="#666A8F"/>
</linearGradient>
<clipPath id="clip0">
<rect width="1920" height="734.379" fill="white" transform="translate(0 -0.0123291)"/>
</clipPath>
</defs>
</svg>
