<svg width="23" height="18" viewBox="0 0 23 18" fill="none" xmlns="http://www.w3.org/2000/svg">
<path d="M20.6538 0.329857C21.1746 0.329857 21.6174 0.512149 21.9819 0.876732C22.3465 1.24132 22.5288 1.68402 22.5288 2.20486V2.82986H0.0288086V2.20486C0.0288086 1.68402 0.2111 1.24132 0.575684 0.876732C0.940267 0.512149 1.38298 0.329857 1.90381 0.329857H20.6538ZM0.0288086 15.9549V4.07986H22.5288V15.9549C22.5288 16.4757 22.3465 16.9184 21.9819 17.283C21.6174 17.6476 21.1746 17.8299 20.6538 17.8299H1.90381C1.38298 17.8299 0.940267 17.6476 0.575684 17.283C0.2111 16.9184 0.0288086 16.4757 0.0288086 15.9549ZM13.7788 6.89236V7.51736C13.7788 7.72569 13.883 7.82986 14.0913 7.82986H19.7163C19.9246 7.82986 20.0288 7.72569 20.0288 7.51736V6.89236C20.0288 6.68402 19.9246 6.57986 19.7163 6.57986H14.0913C13.883 6.57986 13.7788 6.68402 13.7788 6.89236ZM13.7788 9.39236V10.0174C13.7788 10.2257 13.883 10.3299 14.0913 10.3299H19.7163C19.9246 10.3299 20.0288 10.2257 20.0288 10.0174V9.39236C20.0288 9.18402 19.9246 9.07986 19.7163 9.07986H14.0913C13.883 9.07986 13.7788 9.18402 13.7788 9.39236ZM13.7788 11.8924V12.5174C13.7788 12.7257 13.883 12.8299 14.0913 12.8299H19.7163C19.9246 12.8299 20.0288 12.7257 20.0288 12.5174V11.8924C20.0288 11.684 19.9246 11.5799 19.7163 11.5799H14.0913C13.883 11.5799 13.7788 11.684 13.7788 11.8924ZM8.66162 7.32204C8.16683 6.82725 7.58089 6.57986 6.90381 6.57986C6.22673 6.57986 5.64079 6.82725 5.146 7.32204C4.6512 7.81684 4.40381 8.40277 4.40381 9.07986C4.40381 9.75694 4.6512 10.3429 5.146 10.8377C5.64079 11.3325 6.22673 11.5799 6.90381 11.5799C7.58089 11.5799 8.16683 11.3325 8.66162 10.8377C9.15641 10.3429 9.40381 9.75694 9.40381 9.07986C9.40381 8.40277 9.15641 7.81684 8.66162 7.32204ZM2.646 14.5486C2.59391 14.7309 2.63298 14.9132 2.76318 15.0955C2.89339 15.2517 3.06266 15.3299 3.271 15.3299H10.5366C10.745 15.3299 10.9142 15.2517 11.0444 15.0955C11.1746 14.9392 11.2137 14.7569 11.1616 14.5486C11.0054 14.0538 10.7059 13.6502 10.2632 13.3377C9.82048 12.9991 9.32568 12.8299 8.77881 12.8299H8.46631C7.97152 13.0382 7.45068 13.1424 6.90381 13.1424C6.35693 13.1424 5.8361 13.0382 5.34131 12.8299H5.02881C4.66423 12.8299 4.31266 12.908 3.97412 13.0642C3.66162 13.1944 3.38818 13.3898 3.15381 13.6502C2.91943 13.9106 2.75016 14.2101 2.646 14.5486Z" fill="white"/>
</svg>
