<svg width="21" height="21" viewBox="0 0 21 21" fill="none" xmlns="http://www.w3.org/2000/svg">
<path d="M20.5151 16.3C20.8016 16.5864 20.9448 16.925 20.9448 17.3156C20.9448 17.7062 20.8016 18.0448 20.5151 18.3312L18.4448 20.4016C18.1844 20.688 17.8459 20.8312 17.4292 20.8312C17.0386 20.8312 16.7 20.688 16.4136 20.4016L11.8433 15.8312C11.4006 15.3885 11.1271 14.8547 11.0229 14.2297C10.9188 13.6047 11.0099 13.0318 11.2964 12.5109L7.1167 8.33124H4.69482L0.944824 3.33124L3.44482 0.831238L8.44482 4.58124V7.00311L12.6245 11.1828C13.1453 10.8963 13.7183 10.8052 14.3433 10.9094C14.9683 11.0135 15.5021 11.287 15.9448 11.7297L20.5151 16.3ZM13.9136 9.6203C13.575 9.6203 13.2495 9.65936 12.937 9.73749L9.73389 6.53436C9.70785 4.94582 10.2417 3.59165 11.3354 2.47186C12.0386 1.76874 12.8589 1.28697 13.7964 1.02655C14.7599 0.766134 15.7235 0.753113 16.687 0.987488C16.8693 1.03957 16.9735 1.15676 16.9995 1.33905C17.0516 1.52134 17.0125 1.66457 16.8823 1.76874L13.9917 4.69843L14.4214 7.35468L17.0776 7.78436L20.0073 4.89374C20.1375 4.76353 20.2808 4.72447 20.437 4.77655C20.6193 4.80259 20.7365 4.90676 20.7886 5.08905C21.0229 6.02655 21.0099 6.97707 20.7495 7.94061C20.4891 8.90415 20.0073 9.73749 19.3042 10.4406C18.8094 10.9094 18.2365 11.287 17.5854 11.5734L16.8433 10.8312C16.036 10.0239 15.0594 9.6203 13.9136 9.6203ZM9.85107 12.8234C9.66878 13.6307 9.73389 14.451 10.0464 15.2844L5.20264 20.0891C4.70785 20.5838 4.10889 20.8312 3.40576 20.8312C2.72868 20.8312 2.14274 20.5838 1.64795 20.0891C1.1792 19.6203 0.944824 19.0344 0.944824 18.3312C0.944824 17.6542 1.19222 17.0682 1.68701 16.5734L7.62451 10.5969L9.85107 12.8234ZM2.78076 18.9953C2.96305 19.1776 3.18441 19.2687 3.44482 19.2687C3.70524 19.2687 3.9266 19.1776 4.10889 18.9953C4.29118 18.813 4.38232 18.5917 4.38232 18.3312C4.38232 18.0708 4.29118 17.8495 4.10889 17.6672C3.9266 17.4849 3.70524 17.3937 3.44482 17.3937C3.18441 17.3937 2.96305 17.4849 2.78076 17.6672C2.59847 17.8495 2.50732 18.0708 2.50732 18.3312C2.50732 18.5917 2.59847 18.813 2.78076 18.9953Z" fill="white"/>
</svg>
